Tables and DataFrames | DimensionalData
…
Converting to DataFrame ​
array defaultstack defaultlayerfromstack `DimTable`
Arrays will have columns for each dimension, and only one data column
julia
julia> DataFrame(A)

2600×4 DataFrame
  Row │ X      Y      category  data
      │ Int64  Int64  Char      Float64
──────┼───────────────────────────────────
    1 │     1      1  a         0.910106
    2 │     2      1  a         0.749133
    3 │     3      1  a         0.543988
    4 │     4      1  a         0.762479
    5 │     5      1  a         0.826159
    6 │     6      1  a         0.770895
    7 │     7      1  a         0.186981
    8 │     8      1  a         0.381239
  ⋮   │   ⋮      ⋮       ⋮          ⋮
 2594 │     4     10  z         0.991283
 2595 │     5     10  z         0.616276
 2596 │     6     10  z         0.737864
 2597 │     7     10  z         0.508969
 2598 │     8     10  z         0.624411
 2599 │     9     10  z         0.0829415
 2600 │    10     10  z         0.787759
                         2585 rows omitted
…
